<svg width="104" height="104" viewBox="0 0 104 104" fill="none" xmlns="http://www.w3.org/2000/svg">
<mask id="path-1-inside-1_2653_163" fill="white">
<path d="M64.1667 39.8069C59.7186 39.8069 55.4895 41.2311 51.9999 43.8638C48.5103 41.2311 44.2819 39.8069 39.8338 39.8069C34.4241 39.8069 29.338 41.9135 25.5128 45.7388C17.6171 53.636 17.6171 66.4845 25.5128 74.3802L49.8457 98.7131C50.4408 99.3082 51.2199 99.6058 51.9999 99.6058C52.7799 99.6058 53.5598 99.3082 54.1541 98.7131L78.4862 74.3802C82.3123 70.5549 84.4189 65.4697 84.4189 60.0591C84.4189 54.6493 82.3123 49.564 78.487 45.7396C74.6618 41.9135 69.5765 39.8069 64.1667 39.8069Z"/>
</mask>
<path d="M64.1667 39.8069C59.7186 39.8069 55.4895 41.2311 51.9999 43.8638C48.5103 41.2311 44.2819 39.8069 39.8338 39.8069C34.4241 39.8069 29.338 41.9135 25.5128 45.7388C17.6171 53.636 17.6171 66.4845 25.5128 74.3802L49.8457 98.7131C50.4408 99.3082 51.2199 99.6058 51.9999 99.6058C52.7799 99.6058 53.5598 99.3082 54.1541 98.7131L78.4862 74.3802C82.3123 70.5549 84.4189 65.4697 84.4189 60.0591C84.4189 54.6493 82.3123 49.564 78.487 45.7396C74.6618 41.9135 69.5765 39.8069 64.1667 39.8069Z" fill="#DEB959" stroke="#353535" stroke-width="2" mask="url(#path-1-inside-1_2653_163)"/>
<mask id="path-2-inside-2_2653_163" fill="white">
<path d="M37.8581 36.6704C41.4033 36.6704 44.8151 34.8328 47.2185 31.6288C49.46 28.639 50.6947 24.7114 50.6947 20.5696C50.6947 16.4277 49.46 12.5009 47.2185 9.51117C44.8151 6.3064 41.4025 4.46875 37.8581 4.46875C34.3122 4.46875 30.9011 6.3064 28.4977 9.51117C26.2554 12.5009 25.02 16.4285 25.02 20.5696C25.02 24.7114 26.2554 28.639 28.4977 31.6288C30.9003 34.8328 34.3122 36.6704 37.8581 36.6704Z"/>
</mask>
<path d="M37.8581 36.6704C41.4033 36.6704 44.8151 34.8328 47.2185 31.6288C49.46 28.639 50.6947 24.7114 50.6947 20.5696C50.6947 16.4277 49.46 12.5009 47.2185 9.51117C44.8151 6.3064 41.4025 4.46875 37.8581 4.46875C34.3122 4.46875 30.9011 6.3064 28.4977 9.51117C26.2554 12.5009 25.02 16.4285 25.02 20.5696C25.02 24.7114 26.2554 28.639 28.4977 31.6288C30.9003 34.8328 34.3122 36.6704 37.8581 36.6704Z" fill="#DEB959" stroke="#353535" stroke-width="2" mask="url(#path-2-inside-2_2653_163)"/>
<mask id="path-3-inside-3_2653_163" fill="white">
<path d="M66.1416 36.6704C69.6876 36.6704 73.0987 34.8328 75.502 31.6288C77.7443 28.639 78.979 24.7114 78.979 20.5696C78.979 16.4277 77.7443 12.5009 75.502 9.51117C73.0987 6.3064 69.6868 4.46875 66.1416 4.46875C62.5965 4.46875 59.1846 6.3064 56.7812 9.51117C54.5397 12.5009 53.3051 16.4285 53.3051 20.5696C53.3051 24.7114 54.5397 28.639 56.7812 31.6288C59.1846 34.8328 62.5965 36.6704 66.1416 36.6704V36.6704Z"/>
</mask>
<path d="M66.1416 36.6704C69.6876 36.6704 73.0987 34.8328 75.502 31.6288C77.7443 28.639 78.979 24.7114 78.979 20.5696C78.979 16.4277 77.7443 12.5009 75.502 9.51117C73.0987 6.3064 69.6868 4.46875 66.1416 4.46875C62.5965 4.46875 59.1846 6.3064 56.7812 9.51117C54.5397 12.5009 53.3051 16.4285 53.3051 20.5696C53.3051 24.7114 54.5397 28.639 56.7812 31.6288C59.1846 34.8328 62.5965 36.6704 66.1416 36.6704V36.6704Z" fill="#2C5680" stroke="#353535" stroke-width="2" mask="url(#path-3-inside-3_2653_163)"/>
<mask id="path-4-inside-4_2653_163" fill="white">
<path d="M101.001 23.0159C98.9018 20.2158 95.9105 18.6106 92.7946 18.6106C89.6787 18.6106 86.6874 20.2158 84.5879 23.0151C82.6534 25.5938 81.5886 28.9755 81.5886 32.5358C81.5886 36.096 82.6534 39.4777 84.5879 42.0557C86.6874 44.8558 89.6787 46.4609 92.7946 46.4609C95.9105 46.4609 98.9018 44.8558 101.001 42.0557C102.935 39.4777 104 36.0968 104 32.5358C104 28.9755 102.935 25.5946 101.001 23.0159V23.0159Z"/>
</mask>
<path d="M101.001 23.0159C98.9018 20.2158 95.9105 18.6106 92.7946 18.6106C89.6787 18.6106 86.6874 20.2158 84.5879 23.0151C82.6534 25.5938 81.5886 28.9755 81.5886 32.5358C81.5886 36.096 82.6534 39.4777 84.5879 42.0557C86.6874 44.8558 89.6787 46.4609 92.7946 46.4609C95.9105 46.4609 98.9018 44.8558 101.001 42.0557C102.935 39.4777 104 36.0968 104 32.5358C104 28.9755 102.935 25.5946 101.001 23.0159V23.0159Z" fill="#2C5680" stroke="#353535" stroke-width="2" mask="url(#path-4-inside-4_2653_163)"/>
<mask id="path-5-inside-5_2653_163" fill="white">
<path d="M19.4127 23.0151C17.3132 20.2158 14.3219 18.6106 11.2052 18.6106C8.09007 18.6106 5.09874 20.2158 2.99926 23.0159C1.06482 25.5946 0 28.9755 0 32.5358C0 36.096 1.06482 39.4777 2.99926 42.0557C5.09874 44.8558 8.09007 46.4609 11.2052 46.4609C14.3219 46.4609 17.3132 44.8558 19.4127 42.0557C21.3463 39.4777 22.4119 36.0968 22.4119 32.5358C22.4119 28.9755 21.3463 25.5946 19.4127 23.0151Z"/>
</mask>
<path d="M19.4127 23.0151C17.3132 20.2158 14.3219 18.6106 11.2052 18.6106C8.09007 18.6106 5.09874 20.2158 2.99926 23.0159C1.06482 25.5946 0 28.9755 0 32.5358C0 36.096 1.06482 39.4777 2.99926 42.0557C5.09874 44.8558 8.09007 46.4609 11.2052 46.4609C14.3219 46.4609 17.3132 44.8558 19.4127 42.0557C21.3463 39.4777 22.4119 36.0968 22.4119 32.5358C22.4119 28.9755 21.3463 25.5946 19.4127 23.0151Z" fill="#DEB959" stroke="#353535" stroke-width="2" mask="url(#path-5-inside-5_2653_163)"/>
<mask id="path-6-inside-6_2653_163" fill="white">
<path d="M78.4871 45.7396C74.6618 41.9135 69.5766 39.8069 64.1668 39.8069C59.8044 39.8069 55.6554 41.1796 52.2054 43.7155V99.5955C52.9156 99.5479 53.6114 99.2559 54.1542 98.7131L78.4871 74.3802C82.3123 70.5549 84.4189 65.4697 84.4189 60.0591C84.4189 54.6501 82.3123 49.564 78.4871 45.7396V45.7396Z"/>
</mask>
<path d="M78.4871 45.7396C74.6618 41.9135 69.5766 39.8069 64.1668 39.8069C59.8044 39.8069 55.6554 41.1796 52.2054 43.7155V99.5955C52.9156 99.5479 53.6114 99.2559 54.1542 98.7131L78.4871 74.3802C82.3123 70.5549 84.4189 65.4697 84.4189 60.0591C84.4189 54.6501 82.3123 49.564 78.4871 45.7396V45.7396Z" fill="#2C5680" stroke="#353535" stroke-width="2" mask="url(#path-6-inside-6_2653_163)"/>
</svg>
